Welcome - Week-9-entry
…
soybean_use <- read_csv("soybean_use.csv")

Rows: 9897 Columns: 6
── Column specification ────────────────────────────────────────────────────────
Delimiter: ","
chr (2): entity, code
dbl (4): year, human_food, animal_feed, processed

ℹ Use `spec()` to retrieve the full column specification for this data.
ℹ Specify the column types or set `show_col_types = FALSE` to quiet this message.

soybean_use %>%
  filter(entity == "Brazil")

# A tibble: 53 × 6
   entity code   year human_food animal_feed processed
   <chr>  <chr> <dbl>      <dbl>       <dbl>     <dbl>
 1 Brazil BRA    1961       3000       46000    137000
 2 Brazil BRA    1962       3000       65000    167000
 3 Brazil BRA    1963       4000       80000    191000
 4 Brazil BRA    1964       4000       68000    216000
 5 Brazil BRA    1965       6000       68000    284000
 6 Brazil BRA    1966       8000       60000    376000
 7 Brazil BRA    1967       9000       49000    400000
 8 Brazil BRA    1968       9000       89000    454000
 9 Brazil BRA    1969      12000       92000    590000
10 Brazil BRA    1970      20000       65000    985000
# ℹ 43 more rows
vegetable_oil <- read_csv("vegetable_oil.csv")

Rows: 143832 Columns: 5
── Column specification ────────────────────────────────────────────────────────
Delimiter: ","
chr (3): entity, code, crop_oil
dbl (2): year, production

ℹ Use `spec()` to retrieve the full column specification for this data.
ℹ Specify the column types or set `show_col_types = FALSE` to quiet this message.

vegetable_oil %>%
  filter(entity == "Brazil")

# A tibble: 702 × 5
   entity code   year crop_oil        production
   <chr>  <chr> <dbl> <chr>                <dbl>
 1 Brazil BRA    1961 Soybean              21594
 2 Brazil BRA    1961 Sesame                  NA
 3 Brazil BRA    1961 Linseed               8456
 4 Brazil BRA    1961 Palm                  3993
 5 Brazil BRA    1961 Rapeseed                 4
 6 Brazil BRA    1961 Groundnut            91808
 7 Brazil BRA    1961 Cottonseed          116230
 8 Brazil BRA    1961 Coconut (copra)       1071
 9 Brazil BRA    1961 Olive, virgin           NA
10 Brazil BRA    1961 Safflower               NA
# ℹ 692 more rows
